iteration,time,reward,steps,epsilon,convergence
1,196,-556.0,656,0.9178656174605737,15.52
2,16,-80.0,180,0.8882465524295161,15.52
3,11,-82.0,182,0.8659681100852306,10.781782476799997
4,8,56.0,44,0.8504343155351208,10.5375482783744
5,8,-43.0,143,0.8325939916558395,9.9328
6,8,-59.0,159,0.8136619364861445,8.503854632960001
7,12,44.0,56,0.7981878799168196,13.774507276689963
8,7,1.0,99,0.78214722740465,13.01183892015625
9,2,54.0,46,0.7749066171800192,5.982766912926522
10,5,-52.0,152,0.7588024585169224,10.412563143345395
11,4,40.0,60,0.7439251969139442,8.827674333667458
12,4,6.0,94,0.7328490439778524,7.762386121483466
13,2,30.0,70,0.7259195985654588,8.518107267781096
14,4,9.0,91,0.7146110994483281,7.95687939899269
15,1,71.0,29,0.7101229775411715,5.921659281045162
16,2,48.0,52,0.7039713982254727,9.305384574942865
17,2,36.0,64,0.6945311772025067,8.76230002291691
18,2,25.0,75,0.6852860776761496,10.605724326722285
19,3,39.0,61,0.6760964258614143,11.906902782142893
20,2,55.0,45,0.6701725842502929,7.183009435920134
21,1,53.0,47,0.6654975242045705,7.808020783323471
22,1,39.0,61,0.659468668187515,8.098408312586514
23,1,75.0,25,0.6540828677754686,6.435498332389976
24,1,82.0,18,0.6499098965221208,5.940365523748326
25,2,11.0,89,0.642221421484558,11.618218087481559
26,0,60.0,40,0.6379327067597865,6.614627735683477
27,0,77.0,23,0.6336726318053112,12.026927442785457
28,1,60.0,40,0.6286232228435585,4.183600501012251
29,3,38.0,62,0.6216837434553689,5.949120985398295
30,1,55.0,45,0.6158054202188893,10.215174528873732
31,1,69.0,31,0.6104098381197843,7.742097946562884
32,3,38.0,62,0.6034903360877253,11.07783724934449
33,1,58.0,42,0.5982624829043853,5.016490925599118
34,0,70.0,30,0.5945645460609782,9.961691208342987
35,0,78.0,22,0.5914215331554241,5.735171018110858
36,2,55.0,45,0.5858293538882317,5.847282296702055
37,1,45.0,55,0.5808125736781025,5.7504017354043775
38,2,25.0,75,0.5746881708544204,3.364616547953318
39,1,52.0,48,0.5704509635300397,9.799536607348308
40,24,32.0,68,0.5624074021141411,4.259492358009112
41,7,74.0,26,0.5590988029745846,2.512915913246516
42,3,20.0,80,0.5525398828855056,5.256698642662791
43,2,48.0,52,0.5458941060459627,8.476006985563153
44,0,59.0,41,0.542302889433815,3.708171005702546
45,0,59.0,41,0.5387891769014772,4.05086599658128
46,1,64.0,36,0.534121810176314,5.488607570904328
47,24,33.0,67,0.5288069449456982,2.098745939555357
48,1,44.0,56,0.5234926116422792,5.938610059550385
49,1,73.0,27,0.5199967605280804,3.9547809974121293
50,0,83.0,17,0.5163176757778725,2.157403005280834
51,0,60.0,40,0.5128184514654553,2.2041749280287704
52,0,56.0,44,0.5098525655341664,2.1164885598520797
53,0,52.0,48,0.5053853242831864,7.260761872923002
54,2,63.0,37,0.5008069520993412,3.3251087832401183
55,0,70.0,30,0.4980599377244261,8.24785225869186
56,1,76.0,24,0.4946844510330192,1.5133212634297877
57,1,60.0,40,0.491282707742326,5.01399232594666
58,1,69.0,31,0.48775800018296483,5.278625445562788
59,1,67.0,33,0.4847431056657845,1.1468761509308933
60,3,31.0,69,0.47867335875409084,2.0428222866159302
61,2,73.0,27,0.4756194793999079,3.6965191823775356
62,1,59.0,41,0.4719710913072019,8.558967645605687
63,1,50.0,50,0.4679761398778757,2.942568314725804
64,1,71.0,29,0.4653626673719859,3.604106573754237
65,1,66.0,34,0.46253245451368513,3.182695043482866
66,0,68.0,32,0.46027147635632654,0.5585842231728719
67,1,45.0,55,0.4564668439351531,0.8828588264571096
68,0,70.0,30,0.45364536405263256,1.0115654333483093
69,0,83.0,17,0.4516084445730258,4.812747770485586
70,0,63.0,37,0.44769629800927185,2.0925421526022703
71,0,68.0,32,0.4451515612616075,2.3504021408070486
72,0,70.0,30,0.44262128897376507,0.7373711956453377
73,0,71.0,29,0.44006138838886055,0.9214487834255038
74,0,78.0,22,0.4377788946697941,0.9981826209398861
75,0,79.0,21,0.4353340625354532,9.841482497290343
76,0,47.0,53,0.43208110824357826,3.2126433196272473
77,0,71.0,29,0.4291956974658808,1.2159507347984828
78,0,70.0,30,0.42598861098614504,0.8930266567585363
79,0,66.0,34,0.42293235589374706,7.093907818982689
80,0,61.0,39,0.42010803991545004,1.0642610457186947
81,0,58.0,42,0.41734431897556123,0.3944287744891142
82,0,73.0,27,0.41493060776720714,3.269406281507443
83,0,66.0,34,0.41228339961721305,0.7748033566885084
84,0,68.0,32,0.4101449837167702,0.5714867267632826
85,1,72.0,28,0.4073245838767177,1.0572147703064303
86,0,52.0,48,0.40468542866846985,0.689011484136941
87,0,78.0,22,0.40323110775639237,1.0638464013515971
88,0,66.0,34,0.40097921214924476,0.9439078398271761
89,0,81.0,19,0.39921869157400564,0.989854744152538
90,0,69.0,31,0.3970289067080181,0.4481460011765108
91,0,71.0,29,0.395285730159095,0.2993452144994535
92,0,58.0,42,0.3928424185575851,1.035078930387897
93,0,82.0,18,0.39068760867259794,0.8682790110494096
94,0,59.0,41,0.3882727186474717,0.7051397848137526
95,0,79.0,21,0.3863361037938264,3.782656466034652
96,0,74.0,26,0.3841017286232045,5.014376397169826
97,0,66.0,34,0.38207127339659147,0.8420297643120023
98,0,82.0,18,0.37997554514069815,5.152565216609787
99,2,60.0,40,0.3770608237837007,2.5062402686390755
100,3,71.0,29,0.37499257872677977,0.8429317775580927
